benchmark,model,property,algorithm,seed,simulations,time,robustness,falsified,input,control points,exploration ratio,budget
SC,steamcondense_RNN_22,"□_[30.0, 35.0] ((87.0 <= pressure) && (pressure <= 87.5))",adaptive,0,300,57,0.155635631369307,no,[0.0 4.0; 17.5 4.005; 29.166666666666664 4.0093749999999995; 35.0 4.0093749999999995],2 2 3 3 3 4,0.25,300
SC,steamcondense_RNN_22,"□_[30.0, 35.0] ((87.0 <= pressure) && (pressure <= 87.5))",adaptive,-2.37966870144624E+018,300,36,0.160671078589672,no,[0.0 4.01; 17.5 3.995; 29.166666666666664 4.003125; 35.0 4.003125],2 2 3 3 3 4,0.25,300
SC,steamcondense_RNN_22,"□_[30.0, 35.0] ((87.0 <= pressure) && (pressure <= 87.5))",adaptive,5.74644619559953E+016,299,35,0.241107925705208,no,[0.0 4.00625; 11.666666666666666 3.99; 29.166666666666664 3.99; 35.0 3.99],2 2 3 3 3 4,0.25,300
SC,steamcondense_RNN_22,"□_[30.0, 35.0] ((87.0 <= pressure) && (pressure <= 87.5))",adaptive,6.19901585039055E+018,300,37,0.180093149319703,no,[0.0 4.01; 17.5 3.995; 29.166666666666664 4.000625; 35.0 4.000625],2 2 3 3 3 4,0.25,300
SC,steamcondense_RNN_22,"□_[30.0, 35.0] ((87.0 <= pressure) && (pressure <= 87.5))",adaptive,1.44502081871555E+017,295,35,0.151367404024938,no,[0.0 4.0; 17.5 3.995; 29.166666666666664 4.004375; 35.0 4.004375],2 2 3 3 3 4,0.25,300
SC,steamcondense_RNN_22,"□_[30.0, 35.0] ((87.0 <= pressure) && (pressure <= 87.5))",adaptive,-9.01164259293293E+018,300,35,0.203132214061668,no,[0.0 3.99; 17.5 4.005; 29.166666666666664 3.99125; 35.0 3.99125],2 2 3 3 3 4,0.25,300
SC,steamcondense_RNN_22,"□_[30.0, 35.0] ((87.0 <= pressure) && (pressure <= 87.5))",adaptive,3.24401653561762E+018,300,35,0.096893142171396,no,[0.0 4.0; 17.5 3.9925; 29.166666666666664 4.01; 35.0 4.01],2 2 3 3 3 4,0.25,300
SC,steamcondense_RNN_22,"□_[30.0, 35.0] ((87.0 <= pressure) && (pressure <= 87.5))",adaptive,7.95806510888935E+017,298,35,0.206337043595838,no,[0.0 4.001875; 8.75 4.0; 26.25 4.0; 35.0 4.0],2 2 3 3 3 4,0.25,300
SC,steamcondense_RNN_22,"□_[30.0, 35.0] ((87.0 <= pressure) && (pressure <= 87.5))",adaptive,-2.9828008506891E+017,300,36,0.187387960693471,no,[0.0 3.995; 11.666666666666666 4.0; 29.166666666666664 4.0024999999999995; 35.0 4.0024999999999995],2 2 3 3 3 4,0.25,300
SC,steamcondense_RNN_22,"□_[30.0, 35.0] ((87.0 <= pressure) && (pressure <= 87.5))",adaptive,-4.82032374524052E+017,300,36,0.161631627108648,no,[0.0 3.99; 17.5 4.0075; 29.166666666666664 4.01; 35.0 4.01],2 2 3 3 3 4,0.25,300
SC,steamcondense_RNN_22,"□_[30.0, 35.0] ((87.0 <= pressure) && (pressure <= 87.5))",adaptive,6.65331187741355E+018,300,35,0.148196548300845,no,[0.0 3.998125; 8.75 3.99; 26.25 4.01; 35.0 4.01],2 2 3 3 3 4,0.25,300
SC,steamcondense_RNN_22,"□_[30.0, 35.0] ((87.0 <= pressure) && (pressure <= 87.5))",adaptive,2.88271337864927E+018,294,35,0.09109721802129,no,[0.0 4.01; 17.5 3.99125; 29.166666666666664 4.01; 35.0 4.01],2 2 3 3 3 4,0.25,300
SC,steamcondense_RNN_22,"□_[30.0, 35.0] ((87.0 <= pressure) && (pressure <= 87.5))",adaptive,-7.56019530958657E+018,299,36,0.206378785635579,no,[0.0 4.0; 17.5 4.005; 29.166666666666664 3.993125; 35.0 3.993125],2 2 3 3 3 4,0.25,300
SC,steamcondense_RNN_22,"□_[30.0, 35.0] ((87.0 <= pressure) && (pressure <= 87.5))",adaptive,2.44086810296657E+018,300,35,0.187133625550814,no,[0.0 3.99; 17.5 4.0075; 29.166666666666664 4.0024999999999995; 35.0 4.0024999999999995],2 2 3 3 3 4,0.25,300
SC,steamcondense_RNN_22,"□_[30.0, 35.0] ((87.0 <= pressure) && (pressure <= 87.5))",adaptive,3.24519598557912E+016,300,35,0.112122144892027,no,[0.0 4.01; 17.5 3.995; 29.166666666666664 4.0093749999999995; 35.0 4.0093749999999995],2 2 3 3 3 4,0.25,300
SC,steamcondense_RNN_22,"□_[30.0, 35.0] ((87.0 <= pressure) && (pressure <= 87.5))",adaptive,3.48669090704518E+018,297,35,0.141250439349335,no,[0.0 4.01; 17.5 3.995; 29.166666666666664 4.005625; 35.0 4.005625],2 2 3 3 3 4,0.25,300
SC,steamcondense_RNN_22,"□_[30.0, 35.0] ((87.0 <= pressure) && (pressure <= 87.5))",adaptive,7.63976361123673E+018,300,35,0.12223789829514,no,[0.0 4.0; 17.5 3.995; 29.166666666666664 4.008125; 35.0 4.008125],2 2 3 3 3 4,0.25,300
SC,steamcondense_RNN_22,"□_[30.0, 35.0] ((87.0 <= pressure) && (pressure <= 87.5))",adaptive,5.76836340629892E+018,300,35,0.165952124605582,no,[0.0 3.995; 11.666666666666666 3.990625; 20.416666666666664 4.01; 35.0 4.01],2 2 3 3 3 4,0.25,300
SC,steamcondense_RNN_22,"□_[30.0, 35.0] ((87.0 <= pressure) && (pressure <= 87.5))",adaptive,8.60307655846918E+018,300,35,0.219109598035999,no,[0.0 4.01; 17.5 3.9975; 29.166666666666664 3.995; 35.0 3.995],2 2 3 3 3 4,0.25,300
SC,steamcondense_RNN_22,"□_[30.0, 35.0] ((87.0 <= pressure) && (pressure <= 87.5))",adaptive,-4.75425398644728E+018,300,35,0.102283965527533,no,[0.0 4.0; 17.5 3.9937500000000004; 29.166666666666664 4.01; 35.0 4.01],2 2 3 3 3 4,0.25,300
SC,steamcondense_RNN_22,"□_[30.0, 35.0] ((87.0 <= pressure) && (pressure <= 87.5))",adaptive,-7.9680188004189E+018,300,35,0.130745408252096,no,[0.0 3.99; 17.5 3.99125; 29.166666666666664 4.005; 35.0 4.005],2 2 3 3 3 4,0.25,300
SC,steamcondense_RNN_22,"□_[30.0, 35.0] ((87.0 <= pressure) && (pressure <= 87.5))",adaptive,-7.94106935187155E+018,297,35,0.160078383116456,no,[0.0 4.01; 17.5 4.005; 29.166666666666664 4.00875; 35.0 4.00875],2 2 3 3 3 4,0.25,300
SC,steamcondense_RNN_22,"□_[30.0, 35.0] ((87.0 <= pressure) && (pressure <= 87.5))",adaptive,8.5935811667728E+018,300,35,0.112657017136812,no,[0.0 4.01; 17.5 3.99625; 29.166666666666664 4.01; 35.0 4.01],2 2 3 3 3 4,0.25,300
SC,steamcondense_RNN_22,"□_[30.0, 35.0] ((87.0 <= pressure) && (pressure <= 87.5))",adaptive,2.9925584950834E+018,300,35,0.135730995157232,no,[0.0 4.0; 17.5 3.9925; 29.166666666666664 4.005; 35.0 4.005],2 2 3 3 3 4,0.25,300
SC,steamcondense_RNN_22,"□_[30.0, 35.0] ((87.0 <= pressure) && (pressure <= 87.5))",adaptive,-1.80794032942096E+018,295,34,0.16913523715445,no,[0.0 4.0; 17.5 4.0024999999999995; 29.166666666666664 4.00625; 35.0 4.00625],2 2 3 3 3 4,0.25,300
SC,steamcondense_RNN_22,"□_[30.0, 35.0] ((87.0 <= pressure) && (pressure <= 87.5))",adaptive,1.66523722087109E+018,300,35,0.185807315311635,no,[0.0 4.01; 17.5 4.0075; 29.166666666666664 4.00375; 35.0 4.00375],2 2 3 3 3 4,0.25,300
SC,steamcondense_RNN_22,"□_[30.0, 35.0] ((87.0 <= pressure) && (pressure <= 87.5))",adaptive,7.70739805027087E+018,300,35,0.144983273311425,no,[0.0 4.01; 17.5 4.00375; 29.166666666666664 4.01; 35.0 4.01],2 2 3 3 3 4,0.25,300
SC,steamcondense_RNN_22,"□_[30.0, 35.0] ((87.0 <= pressure) && (pressure <= 87.5))",adaptive,4.05640496835336E+018,300,35,0.113064267430147,no,[0.0 4.0; 17.5 3.99625; 29.166666666666664 4.01; 35.0 4.01],2 2 3 3 3 4,0.25,300
SC,steamcondense_RNN_22,"□_[30.0, 35.0] ((87.0 <= pressure) && (pressure <= 87.5))",adaptive,5.98919941623233E+018,292,34,0.142064859572841,no,[0.0 3.99; 17.5 3.995; 29.166666666666664 4.005625; 35.0 4.005625],2 2 3 3 3 4,0.25,300
SC,steamcondense_RNN_22,"□_[30.0, 35.0] ((87.0 <= pressure) && (pressure <= 87.5))",adaptive,1.34500832116541E+017,300,35,0.151775099797305,no,[0.0 3.99; 17.5 3.995; 29.166666666666664 4.004375; 35.0 4.004375],2 2 3 3 3 4,0.25,300
SC,steamcondense_RNN_22,"□_[30.0, 35.0] ((87.0 <= pressure) && (pressure <= 87.5))",adaptive,2.14002160341197E+018,298,35,0.202691129191422,no,[0.0 4.0; 17.5 4.005; 29.166666666666664 3.995625; 35.0 3.995625],2 2 3 3 3 4,0.25,300
SC,steamcondense_RNN_22,"□_[30.0, 35.0] ((87.0 <= pressure) && (pressure <= 87.5))",adaptive,5.87756844013613E+018,289,34,Infinity,no,[],2 2 3 3 3 4,0.25,300
SC,steamcondense_RNN_22,"□_[30.0, 35.0] ((87.0 <= pressure) && (pressure <= 87.5))",adaptive,-6.75956923478695E+018,299,35,0.154588777060482,no,[0.0 3.995; 11.666666666666666 3.99; 29.166666666666664 4.00125; 35.0 4.00125],2 2 3 3 3 4,0.25,300
SC,steamcondense_RNN_22,"□_[30.0, 35.0] ((87.0 <= pressure) && (pressure <= 87.5))",adaptive,-6.14747340536727E+018,300,35,0.112936270836443,no,[0.0 3.99; 17.5 3.995; 29.166666666666664 4.0093749999999995; 35.0 4.0093749999999995],2 2 3 3 3 4,0.25,300
SC,steamcondense_RNN_22,"□_[30.0, 35.0] ((87.0 <= pressure) && (pressure <= 87.5))",adaptive,7.16525476778368E+018,288,34,0.14508483531182,no,[0.0 4.005; 11.666666666666666 3.99; 29.166666666666664 4.0024999999999995; 35.0 4.0024999999999995],2 2 3 3 3 4,0.25,300
SC,steamcondense_RNN_22,"□_[30.0, 35.0] ((87.0 <= pressure) && (pressure <= 87.5))",adaptive,-8.25688835725466E+018,300,35,0.208218690070467,no,[0.0 4.0; 17.5 4.005; 29.166666666666664 3.9918750000000003; 35.0 3.9918750000000003],2 2 3 3 3 4,0.25,300
SC,steamcondense_RNN_22,"□_[30.0, 35.0] ((87.0 <= pressure) && (pressure <= 87.5))",adaptive,-4.2239202114663E+018,298,35,0.135600558562047,no,[0.0 3.99; 17.5 3.99125; 29.166666666666664 4.004375; 35.0 4.004375],2 2 3 3 3 4,0.25,300
SC,steamcondense_RNN_22,"□_[30.0, 35.0] ((87.0 <= pressure) && (pressure <= 87.5))",adaptive,-5.74710715750074E+017,300,35,0.196870584936278,no,[0.0 3.99; 17.5 4.005; 29.166666666666664 3.999375; 35.0 3.999375],2 2 3 3 3 4,0.25,300
SC,steamcondense_RNN_22,"□_[30.0, 35.0] ((87.0 <= pressure) && (pressure <= 87.5))",adaptive,1.90740352880591E+018,300,35,0.193998466453834,no,[0.0 4.0; 17.5 3.9925; 29.166666666666664 3.9975; 35.0 3.9975],2 2 3 3 3 4,0.25,300
SC,steamcondense_RNN_22,"□_[30.0, 35.0] ((87.0 <= pressure) && (pressure <= 87.5))",adaptive,8.68517662103442E+018,298,35,0.12545655756098,no,[0.0 3.995; 11.666666666666666 3.99; 29.166666666666664 4.005; 35.0 4.005],2 2 3 3 3 4,0.25,300
SC,steamcondense_RNN_22,"□_[30.0, 35.0] ((87.0 <= pressure) && (pressure <= 87.5))",adaptive,-3.55829781536944E+018,295,34,0.186206050469295,no,[0.0 3.99; 17.5 4.0075; 29.166666666666664 4.003125; 35.0 4.003125],2 2 3 3 3 4,0.25,300
SC,steamcondense_RNN_22,"□_[30.0, 35.0] ((87.0 <= pressure) && (pressure <= 87.5))",adaptive,-6.73144129243517E+018,300,35,0.123513671693203,no,[0.0 3.995; 11.666666666666666 4.004375; 20.416666666666664 3.9987500000000002; 32.08333333333333 4.01; 35.0 4.01],2 2 3 3 3 4,0.25,300
SC,steamcondense_RNN_22,"□_[30.0, 35.0] ((87.0 <= pressure) && (pressure <= 87.5))",adaptive,5.19399798065699E+018,300,35,0.166292317699515,no,[0.0 3.99; 17.5 4.006875; 26.25 4.01; 35.0 4.01],2 2 3 3 3 4,0.25,300
SC,steamcondense_RNN_22,"□_[30.0, 35.0] ((87.0 <= pressure) && (pressure <= 87.5))",adaptive,1.09420173079893E+018,300,35,0.137209873057614,no,[0.0 3.99; 17.5 3.995; 29.166666666666664 4.00625; 35.0 4.00625],2 2 3 3 3 4,0.25,300
SC,steamcondense_RNN_22,"□_[30.0, 35.0] ((87.0 <= pressure) && (pressure <= 87.5))",adaptive,5.79625448681919E+018,298,35,0.214486694836594,no,[0.0 4.01; 17.5 4.003125; 26.25 3.99; 35.0 3.99],2 2 3 3 3 4,0.25,300
SC,steamcondense_RNN_22,"□_[30.0, 35.0] ((87.0 <= pressure) && (pressure <= 87.5))",adaptive,-2.90721271450027E+018,298,35,Infinity,no,[],2 2 3 3 3 4,0.25,300
SC,steamcondense_RNN_22,"□_[30.0, 35.0] ((87.0 <= pressure) && (pressure <= 87.5))",adaptive,5.71572640639458E+018,300,35,0.10603685536195,no,[0.0 3.995; 11.666666666666666 3.99; 29.166666666666664 4.0075; 35.0 4.0075],2 2 3 3 3 4,0.25,300
SC,steamcondense_RNN_22,"□_[30.0, 35.0] ((87.0 <= pressure) && (pressure <= 87.5))",adaptive,5.47243566102415E+017,300,35,0.228641322387389,no,[0.0 4.0; 17.5 3.995; 29.166666666666664 3.9918750000000003; 35.0 3.9918750000000003],2 2 3 3 3 4,0.25,300
SC,steamcondense_RNN_22,"□_[30.0, 35.0] ((87.0 <= pressure) && (pressure <= 87.5))",adaptive,-3.09293186358422E+018,300,35,0.175644445029789,no,[0.0 4.0; 17.5 3.995; 29.166666666666664 4.00125; 35.0 4.00125],2 2 3 3 3 4,0.25,300
SC,steamcondense_RNN_22,"□_[30.0, 35.0] ((87.0 <= pressure) && (pressure <= 87.5))",adaptive,8.72904240590624E+018,293,34,0.196870584936278,no,[0.0 3.99; 17.5 4.005; 29.166666666666664 3.999375; 35.0 3.999375],2 2 3 3 3 4,0.25,300
